…
ejections %>%
  group_by(Team) %>%
  count() %>%
  arrange(desc(n))

## # A tibble: 34 x 2
## # Groups:   Team [34]
##    Team      n
##    <chr> <int>
##  1 BOS      95
##  2 TOR      94
##  3 DET      90
##  4 LAD      89
##  5 ATL      82
##  6 TB       75
##  7 CWS      74
##  8 PIT      74
##  9 TEX      71
## 10 NYY      68
## # ... with 24 more rows
…
